Vessel registry - EDA
…
  mutate(.rid = 1:n(),
         .last = case_when(.rid == max(.rid) ~ TRUE,
                           .default = FALSE),
         v = dplyr::consecutive_id(vessel, uid, uno, .last),
         .before = vid) |> 
  # put vessel fate on last record
  fill(fate) |> 
  mutate(fate = case_when(.rid == max(.rid) ~ fate,
                          .default = NA)) |> 
  ungroup() |> 
  distinct(vid, vessel, uid, uno, .last, .keep_all = TRUE) |> 
  select(-.last)
h

## # A tibble: 23,145 × 8
##     .rid     v   vid vessel   uid   uno    year fate       
##    <int> <int> <int> <chr>    <chr> <chr> <dbl> <chr>      
##  1     1     1     1 Akurey   RE    95     1947 <NA>       
##  2     6     2     1 Akurey   AK    77     1952 <NA>       
##  3    20     3     1 Akurey   AK    77     1966 Sold abroad
##  4     1     1     2 Akurey   SF    52     1964 <NA>       
##  5    23     2     2 Akurey   GK    160    1986 <NA>       
##  6    24     3     2 Akurey   KE    121    1987 <NA>       
##  7    26     4     2 Akurey   SF    122    1989 <NA>       
##  8    29     5     2 Akurey   SF    122    1992 Ruined     
##  9     1     1     3 Akraborg EA    50     1947 <NA>       
## 10    33     2     3 Akraborg EA    50     1979 Ruined     
## # ℹ 23,135 more rows
…
